%YAML 1.1
%TAG !u! tag:unity3d.com,2011:
--- !u!1045 &1
EditorBuildSettings:
  m_ObjectHideFlags: 0
  serializedVersion: 2
  m_Scenes:
  - enabled: 0
    path: Assets/FPSControlAssets/Scenes/SaveTest/_StartScene.unity
  - enabled: 0
    path: Assets/FPSControlAssets/Scenes/SaveTest/SaveTestA.unity
  - enabled: 0
    path: Assets/FPSControlAssets/Scenes/SaveTest/SaveTestB.unity
  - enabled: 0
    path: Assets/FPSControlAssets/Scenes/ShellShock.unity
  - enabled: 1
    path: Assets/_Scene/Scene.unity
