%YAML 1.1
%TAG !u! tag:unity3d.com,2011:
--- !u!1 &107306
GameObject:
  m_ObjectHideFlags: 1
  m_PrefabParentObject: {fileID: 0}
  m_PrefabInternal: {fileID: 100100000}
  serializedVersion: 4
  m_Component:
  - 4: {fileID: 407306}
  m_Layer: 0
  m_Name: Bip001 L Finger1
  m_TagString: Untagged
  m_Icon: {fileID: 0}
  m_NavMeshLayer: 0
  m_StaticEditorFlags: 0
  m_IsActive: 1
--- !u!1 &107308
GameObject:
  m_ObjectHideFlags: 0
  m_PrefabParentObject: {fileID: 0}
  m_PrefabInternal: {fileID: 100100000}
  serializedVersion: 4
  m_Component:
  - 4: {fileID: 407308}
  - 111: {fileID: 11107428}
  - 114: {fileID: 11407424}
  - 114: {fileID: 11407426}
  - 114: {fileID: 11407428}
  - 82: {fileID: 8207428}
  - 136: {fileID: 13607428}
  - 135: {fileID: 13507428}
  - 54: {fileID: 5407428}
  m_Layer: 0
  m_Name: Golem
  m_TagString: Untagged
  m_Icon: {fileID: 0}
  m_NavMeshLayer: 0
  m_StaticEditorFlags: 0
  m_IsActive: 1
--- !u!1 &107310
GameObject:
  m_ObjectHideFlags: 1
  m_PrefabParentObject: {fileID: 0}
  m_PrefabInternal: {fileID: 100100000}
  serializedVersion: 4
  m_Component:
  - 4: {fileID: 407310}
  m_Layer: 0
  m_Name: Bip001 Neck
  m_TagString: Untagged
  m_Icon: {fileID: 0}
  m_NavMeshLayer: 0
  m_StaticEditorFlags: 0
  m_IsActive: 1
--- !u!1 &107312
GameObject:
  m_ObjectHideFlags: 1
  m_PrefabParentObject: {fileID: 0}
  m_PrefabInternal: {fileID: 100100000}
  serializedVersion: 4
  m_Component:
  - 4: {fileID: 407312}
  m_Layer: 0
  m_Name: Bip001 Head
  m_TagString: Untagged
  m_Icon: {fileID: 0}
  m_NavMeshLayer: 0
  m_StaticEditorFlags: 0
  m_IsActive: 1
--- !u!1 &107314
GameObject:
  m_ObjectHideFlags: 1
  m_PrefabParentObject: {fileID: 0}
  m_PrefabInternal: {fileID: 100100000}
  serializedVersion: 4
  m_Component:
  - 4: {fileID: 407314}
  m_Layer: 0
  m_Name: Bip001 L Finger11
  m_TagString: Untagged
  m_Icon: {fileID: 0}
  m_NavMeshLayer: 0
  m_StaticEditorFlags: 0
  m_IsActive: 1
--- !u!1 &107316
GameObject:
  m_ObjectHideFlags: 1
  m_PrefabParentObject: {fileID: 0}
  m_PrefabInternal: {fileID: 100100000}
  serializedVersion: 4
  m_Component:
  - 4: {fileID: 407316}
  m_Layer: 0
  m_Name: Bip001 R Finger4
  m_TagString: Untagged
  m_Icon: {fileID: 0}
  m_NavMeshLayer: 0
  m_StaticEditorFlags: 0
  m_IsActive: 1
--- !u!1 &107318
GameObject:
  m_ObjectHideFlags: 1
  m_PrefabParentObject: {fileID: 0}
  m_PrefabInternal: {fileID: 100100000}
  serializedVersion: 4
  m_Component:
  - 4: {fileID: 407318}
  m_Layer: 0
  m_Name: Bip001 L Toe0Nub
  m_TagString: Untagged
  m_Icon: {fileID: 0}
  m_NavMeshLayer: 0
  m_StaticEditorFlags: 0
  m_IsActive: 1
--- !u!1 &107320
GameObject:
  m_ObjectHideFlags: 1
  m_PrefabParentObject: {fileID: 0}
  m_PrefabInternal: {fileID: 100100000}
  serializedVersion: 4
  m_Component:
  - 4: {fileID: 407320}
  m_Layer: 0
  m_Name: Bip001 R Hand
  m_TagString: Untagged
  m_Icon: {fileID: 0}
  m_NavMeshLayer: 0
  m_StaticEditorFlags: 0
  m_IsActive: 1
--- !u!1 &107322
GameObject:
  m_ObjectHideFlags: 1
  m_PrefabParentObject: {fileID: 0}
  m_PrefabInternal: {fileID: 100100000}
  serializedVersion: 4
  m_Component:
  - 4: {fileID: 407322}
  m_Layer: 0
  m_Name: Bip001 L Calf
  m_TagString: Untagged
  m_Icon: {fileID: 0}
  m_NavMeshLayer: 0
  m_StaticEditorFlags: 0
  m_IsActive: 1
--- !u!1 &107324
GameObject:
  m_ObjectHideFlags: 1
  m_PrefabParentObject: {fileID: 0}
  m_PrefabInternal: {fileID: 100100000}
  serializedVersion: 4
  m_Component:
  - 4: {fileID: 407324}
  m_Layer: 0
  m_Name: Bip001 R Finger3Nub
  m_TagString: Untagged
  m_Icon: {fileID: 0}
  m_NavMeshLayer: 0
  m_StaticEditorFlags: 0
  m_IsActive: 1
--- !u!1 &107326
GameObject:
  m_ObjectHideFlags: 1
  m_PrefabParentObject: {fileID: 0}
  m_PrefabInternal: {fileID: 100100000}
  serializedVersion: 4
  m_Component:
  - 4: {fileID: 407326}
  m_Layer: 0
  m_Name: Bip001 R Finger2Nub
  m_TagString: Untagged
  m_Icon: {fileID: 0}
  m_NavMeshLayer: 0
  m_StaticEditorFlags: 0
  m_IsActive: 1
--- !u!1 &107328
GameObject:
  m_ObjectHideFlags: 1
  m_PrefabParentObject: {fileID: 0}
  m_PrefabInternal: {fileID: 100100000}
  serializedVersion: 4
  m_Component:
  - 4: {fileID: 407328}
  m_Layer: 0
  m_Name: Bip001 R Finger3
  m_TagString: Untagged
  m_Icon: {fileID: 0}
  m_NavMeshLayer: 0
  m_StaticEditorFlags: 0
  m_IsActive: 1
--- !u!1 &107330
GameObject:
  m_ObjectHideFlags: 1
  m_PrefabParentObject: {fileID: 0}
  m_PrefabInternal: {fileID: 100100000}
  serializedVersion: 4
  m_Component:
  - 4: {fileID: 407330}
  m_Layer: 0
  m_Name: Bip001 Spine1
  m_TagString: Untagged
  m_Icon: {fileID: 0}
  m_NavMeshLayer: 0
  m_StaticEditorFlags: 0
  m_IsActive: 1
--- !u!1 &107332
GameObject:
  m_ObjectHideFlags: 0
  m_PrefabParentObject: {fileID: 0}
  m_PrefabInternal: {fileID: 100100000}
  serializedVersion: 4
  m_Component:
  - 4: {fileID: 407332}
  m_Layer: 0
  m_Name: Bip001
  m_TagString: Untagged
  m_Icon: {fileID: 0}
  m_NavMeshLayer: 0
  m_StaticEditorFlags: 0
  m_IsActive: 1
--- !u!1 &107334
GameObject:
  m_ObjectHideFlags: 1
  m_PrefabParentObject: {fileID: 0}
  m_PrefabInternal: {fileID: 100100000}
  serializedVersion: 4
  m_Component:
  - 4: {fileID: 407334}
  m_Layer: 0
  m_Name: Bip001 L Finger0Nub
  m_TagString: Untagged
  m_Icon: {fileID: 0}
  m_NavMeshLayer: 0
  m_StaticEditorFlags: 0
  m_IsActive: 1
--- !u!1 &107336
GameObject:
  m_ObjectHideFlags: 1
  m_PrefabParentObject: {fileID: 0}
  m_PrefabInternal: {fileID: 100100000}
  serializedVersion: 4
  m_Component:
  - 4: {fileID: 407336}
  m_Layer: 0
  m_Name: Bip001 L Finger4Nub
  m_TagString: Untagged
  m_Icon: {fileID: 0}
  m_NavMeshLayer: 0
  m_StaticEditorFlags: 0
  m_IsActive: 1
--- !u!1 &107338
GameObject:
  m_ObjectHideFlags: 1
  m_PrefabParentObject: {fileID: 0}
  m_PrefabInternal: {fileID: 100100000}
  serializedVersion: 4
  m_Component:
  - 4: {fileID: 407338}
  m_Layer: 0
  m_Name: Bip001 L Finger41
  m_TagString: Untagged
  m_Icon: {fileID: 0}
  m_NavMeshLayer: 0
  m_StaticEditorFlags: 0
  m_IsActive: 1
--- !u!1 &107340
GameObject:
  m_ObjectHideFlags: 1
  m_PrefabParentObject: {fileID: 0}
  m_PrefabInternal: {fileID: 100100000}
  serializedVersion: 4
  m_Component:
  - 4: {fileID: 407340}
  m_Layer: 0
  m_Name: Bip001 L Finger4
  m_TagString: Untagged
  m_Icon: {fileID: 0}
  m_NavMeshLayer: 0
  m_StaticEditorFlags: 0
  m_IsActive: 1
--- !u!1 &107342
GameObject:
  m_ObjectHideFlags: 1
  m_PrefabParentObject: {fileID: 0}
  m_PrefabInternal: {fileID: 100100000}
  serializedVersion: 4
  m_Component:
  - 4: {fileID: 407342}
  m_Layer: 0
  m_Name: Bip001 L Finger3
  m_TagString: Untagged
  m_Icon: {fileID: 0}
  m_NavMeshLayer: 0
  m_StaticEditorFlags: 0
  m_IsActive: 1
--- !u!1 &107344
GameObject:
  m_ObjectHideFlags: 1
  m_PrefabParentObject: {fileID: 0}
  m_PrefabInternal: {fileID: 100100000}
  serializedVersion: 4
  m_Component:
  - 4: {fileID: 407344}
  m_Layer: 0
  m_Name: Bip001 L Finger3Nub
  m_TagString: Untagged
  m_Icon: {fileID: 0}
  m_NavMeshLayer: 0
  m_StaticEditorFlags: 0
  m_IsActive: 1
--- !u!1 &107346
GameObject:
  m_ObjectHideFlags: 1
  m_PrefabParentObject: {fileID: 0}
  m_PrefabInternal: {fileID: 100100000}
  serializedVersion: 4
  m_Component:
  - 4: {fileID: 407346}
  m_Layer: 0
  m_Name: Bip001 R Finger11
  m_TagString: Untagged
  m_Icon: {fileID: 0}
  m_NavMeshLayer: 0
  m_StaticEditorFlags: 0
  m_IsActive: 1
--- !u!1 &107348
GameObject:
  m_ObjectHideFlags: 1
  m_PrefabParentObject: {fileID: 0}
  m_PrefabInternal: {fileID: 100100000}
  serializedVersion: 4
  m_Component:
  - 4: {fileID: 407348}
  m_Layer: 0
  m_Name: Bip001 R Forearm
  m_TagString: Untagged
  m_Icon: {fileID: 0}
  m_NavMeshLayer: 0
  m_StaticEditorFlags: 0
  m_IsActive: 1
--- !u!1 &107350
GameObject:
  m_ObjectHideFlags: 1
  m_PrefabParentObject: {fileID: 0}
  m_PrefabInternal: {fileID: 100100000}
  serializedVersion: 4
  m_Component:
  - 4: {fileID: 407350}
  m_Layer: 0
  m_Name: Bip001 L Forearm
  m_TagString: Untagged
  m_Icon: {fileID: 0}
  m_NavMeshLayer: 0
  m_StaticEditorFlags: 0
  m_IsActive: 1
--- !u!1 &107352
GameObject:
  m_ObjectHideFlags: 1
  m_PrefabParentObject: {fileID: 0}
  m_PrefabInternal: {fileID: 100100000}
  serializedVersion: 4
  m_Component:
  - 4: {fileID: 407352}
  m_Layer: 0
  m_Name: Bip001 L Finger2Nub
  m_TagString: Untagged
  m_Icon: {fileID: 0}
  m_NavMeshLayer: 0
  m_StaticEditorFlags: 0
  m_IsActive: 1
--- !u!1 &107354
GameObject:
  m_ObjectHideFlags: 1
  m_PrefabParentObject: {fileID: 0}
  m_PrefabInternal: {fileID: 100100000}
  serializedVersion: 4
  m_Component:
  - 4: {fileID: 407354}
  m_Layer: 0
  m_Name: Bip001 L Thigh
  m_TagString: Untagged
  m_Icon: {fileID: 0}
  m_NavMeshLayer: 0
  m_StaticEditorFlags: 0
  m_IsActive: 1
--- !u!1 &107356
GameObject:
  m_ObjectHideFlags: 1
  m_PrefabParentObject: {fileID: 0}
  m_PrefabInternal: {fileID: 100100000}
  serializedVersion: 4
  m_Component:
  - 4: {fileID: 407356}
  m_Layer: 0
  m_Name: Bip001 Spine3
  m_TagString: Untagged
  m_Icon: {fileID: 0}
  m_NavMeshLayer: 0
  m_StaticEditorFlags: 0
  m_IsActive: 1
--- !u!1 &107358
GameObject:
  m_ObjectHideFlags: 1
  m_PrefabParentObject: {fileID: 0}
  m_PrefabInternal: {fileID: 100100000}
  serializedVersion: 4
  m_Component:
  - 4: {fileID: 407358}
  m_Layer: 0
  m_Name: Bip001 R Calf
  m_TagString: Untagged
  m_Icon: {fileID: 0}
  m_NavMeshLayer: 0
  m_StaticEditorFlags: 0
  m_IsActive: 1
--- !u!1 &107360
GameObject:
  m_ObjectHideFlags: 1
  m_PrefabParentObject: {fileID: 0}
  m_PrefabInternal: {fileID: 100100000}
  serializedVersion: 4
  m_Component:
  - 4: {fileID: 407360}
  m_Layer: 0
  m_Name: Bip001 L Hand
  m_TagString: Untagged
  m_Icon: {fileID: 0}
  m_NavMeshLayer: 0
  m_StaticEditorFlags: 0
  m_IsActive: 1
--- !u!1 &107362
GameObject:
  m_ObjectHideFlags: 1
  m_PrefabParentObject: {fileID: 0}
  m_PrefabInternal: {fileID: 100100000}
  serializedVersion: 4
  m_Component:
  - 4: {fileID: 407362}
  m_Layer: 0
  m_Name: Bip001 R Finger21
  m_TagString: Untagged
  m_Icon: {fileID: 0}
  m_NavMeshLayer: 0
  m_StaticEditorFlags: 0
  m_IsActive: 1
--- !u!1 &107364
GameObject:
  m_ObjectHideFlags: 1
  m_PrefabParentObject: {fileID: 0}
  m_PrefabInternal: {fileID: 100100000}
  serializedVersion: 4
  m_Component:
  - 4: {fileID: 407364}
  m_Layer: 0
  m_Name: Bip001 L Finger2
  m_TagString: Untagged
  m_Icon: {fileID: 0}
  m_NavMeshLayer: 0
  m_StaticEditorFlags: 0
  m_IsActive: 1
--- !u!1 &107366
GameObject:
  m_ObjectHideFlags: 1
  m_PrefabParentObject: {fileID: 0}
  m_PrefabInternal: {fileID: 100100000}
  serializedVersion: 4
  m_Component:
  - 4: {fileID: 407366}
  m_Layer: 0
  m_Name: Bip001 L Toe0
  m_TagString: Untagged
  m_Icon: {fileID: 0}
  m_NavMeshLayer: 0
  m_StaticEditorFlags: 0
  m_IsActive: 1
--- !u!1 &107368
GameObject:
  m_ObjectHideFlags: 1
  m_PrefabParentObject: {fileID: 0}
  m_PrefabInternal: {fileID: 100100000}
  serializedVersion: 4
  m_Component:
  - 4: {fileID: 407368}
  m_Layer: 0
  m_Name: Bip001 R Finger01
  m_TagString: Untagged
  m_Icon: {fileID: 0}
  m_NavMeshLayer: 0
  m_StaticEditorFlags: 0
  m_IsActive: 1
--- !u!1 &107370
GameObject:
  m_ObjectHideFlags: 1
  m_PrefabParentObject: {fileID: 0}
  m_PrefabInternal: {fileID: 100100000}
  serializedVersion: 4
  m_Component:
  - 4: {fileID: 407370}
  m_Layer: 0
  m_Name: Bip001 L Finger21
  m_TagString: Untagged
  m_Icon: {fileID: 0}
  m_NavMeshLayer: 0
  m_StaticEditorFlags: 0
  m_IsActive: 1
--- !u!1 &107372
GameObject:
  m_ObjectHideFlags: 1
  m_PrefabParentObject: {fileID: 0}
  m_PrefabInternal: {fileID: 100100000}
  serializedVersion: 4
  m_Component:
  - 4: {fileID: 407372}
  m_Layer: 0
  m_Name: Bip001 R Finger4Nub
  m_TagString: Untagged
  m_Icon: {fileID: 0}
  m_NavMeshLayer: 0
  m_StaticEditorFlags: 0
  m_IsActive: 1
--- !u!1 &107374
GameObject:
  m_ObjectHideFlags: 1
  m_PrefabParentObject: {fileID: 0}
  m_PrefabInternal: {fileID: 100100000}
  serializedVersion: 4
  m_Component:
  - 4: {fileID: 407374}
  m_Layer: 0
  m_Name: Bip001 R Finger41
  m_TagString: Untagged
  m_Icon: {fileID: 0}
  m_NavMeshLayer: 0
  m_StaticEditorFlags: 0
  m_IsActive: 1
--- !u!1 &107376
GameObject:
  m_ObjectHideFlags: 1
  m_PrefabParentObject: {fileID: 0}
  m_PrefabInternal: {fileID: 100100000}
  serializedVersion: 4
  m_Component:
  - 4: {fileID: 407376}
  m_Layer: 0
  m_Name: Bip001 R Foot
  m_TagString: Untagged
  m_Icon: {fileID: 0}
  m_NavMeshLayer: 0
  m_StaticEditorFlags: 0
  m_IsActive: 1
--- !u!1 &107378
GameObject:
  m_ObjectHideFlags: 1
  m_PrefabParentObject: {fileID: 0}
  m_PrefabInternal: {fileID: 100100000}
  serializedVersion: 4
  m_Component:
  - 4: {fileID: 407378}
  m_Layer: 0
  m_Name: Bip001 L Foot
  m_TagString: Untagged
  m_Icon: {fileID: 0}
  m_NavMeshLayer: 0
  m_StaticEditorFlags: 0
  m_IsActive: 1
--- !u!1 &107380
GameObject:
  m_ObjectHideFlags: 1
  m_PrefabParentObject: {fileID: 0}
  m_PrefabInternal: {fileID: 100100000}
  serializedVersion: 4
  m_Component:
  - 4: {fileID: 407380}
  m_Layer: 0
  m_Name: Bip001 L UpperArm
  m_TagString: Untagged
  m_Icon: {fileID: 0}
  m_NavMeshLayer: 0
  m_StaticEditorFlags: 0
  m_IsActive: 1
--- !u!1 &107382
GameObject:
  m_ObjectHideFlags: 1
  m_PrefabParentObject: {fileID: 0}
  m_PrefabInternal: {fileID: 100100000}
  serializedVersion: 4
  m_Component:
  - 4: {fileID: 407382}
  m_Layer: 0
  m_Name: Bip001 L Finger01
  m_TagString: Untagged
  m_Icon: {fileID: 0}
  m_NavMeshLayer: 0
  m_StaticEditorFlags: 0
  m_IsActive: 1
--- !u!1 &107384
GameObject:
  m_ObjectHideFlags: 1
  m_PrefabParentObject: {fileID: 0}
  m_PrefabInternal: {fileID: 100100000}
  serializedVersion: 4
  m_Component:
  - 4: {fileID: 407384}
  m_Layer: 0
  m_Name: Bip001 R Finger1
  m_TagString: Untagged
  m_Icon: {fileID: 0}
  m_NavMeshLayer: 0
  m_StaticEditorFlags: 0
  m_IsActive: 1
--- !u!1 &107386
GameObject:
  m_ObjectHideFlags: 1
  m_PrefabParentObject: {fileID: 0}
  m_PrefabInternal: {fileID: 100100000}
  serializedVersion: 4
  m_Component:
  - 4: {fileID: 407386}
  m_Layer: 0
  m_Name: Bip001 L Finger0
  m_TagString: Untagged
  m_Icon: {fileID: 0}
  m_NavMeshLayer: 0
  m_StaticEditorFlags: 0
  m_IsActive: 1
--- !u!1 &107388
GameObject:
  m_ObjectHideFlags: 1
  m_PrefabParentObject: {fileID: 0}
  m_PrefabInternal: {fileID: 100100000}
  serializedVersion: 4
  m_Component:
  - 4: {fileID: 407388}
  m_Layer: 0
  m_Name: Bip001 Ponytail1
  m_TagString: Untagged
  m_Icon: {fileID: 0}
  m_NavMeshLayer: 0
  m_StaticEditorFlags: 0
  m_IsActive: 1
--- !u!1 &107390
GameObject:
  m_ObjectHideFlags: 1
  m_PrefabParentObject: {fileID: 0}
  m_PrefabInternal: {fileID: 100100000}
  serializedVersion: 4
  m_Component:
  - 4: {fileID: 407390}
  m_Layer: 0
  m_Name: Bip001 L Finger1Nub
  m_TagString: Untagged
  m_Icon: {fileID: 0}
  m_NavMeshLayer: 0
  m_StaticEditorFlags: 0
  m_IsActive: 1
--- !u!1 &107392
GameObject:
  m_ObjectHideFlags: 1
  m_PrefabParentObject: {fileID: 0}
  m_PrefabInternal: {fileID: 100100000}
  serializedVersion: 4
  m_Component:
  - 4: {fileID: 407392}
  m_Layer: 0
  m_Name: Bip001 HeadNub
  m_TagString: Untagged
  m_Icon: {fileID: 0}
  m_NavMeshLayer: 0
  m_StaticEditorFlags: 0
  m_IsActive: 1
--- !u!1 &107394
GameObject:
  m_ObjectHideFlags: 1
  m_PrefabParentObject: {fileID: 0}
  m_PrefabInternal: {fileID: 100100000}
  serializedVersion: 4
  m_Component:
  - 4: {fileID: 407394}
  m_Layer: 0
  m_Name: Bip001 R UpperArm
  m_TagString: Untagged
  m_Icon: {fileID: 0}
  m_NavMeshLayer: 0
  m_StaticEditorFlags: 0
  m_IsActive: 1
--- !u!1 &107396
GameObject:
  m_ObjectHideFlags: 1
  m_PrefabParentObject: {fileID: 0}
  m_PrefabInternal: {fileID: 100100000}
  serializedVersion: 4
  m_Component:
  - 4: {fileID: 407396}
  m_Layer: 0
  m_Name: Bip001 R Finger0Nub
  m_TagString: Untagged
  m_Icon: {fileID: 0}
  m_NavMeshLayer: 0
  m_StaticEditorFlags: 0
  m_IsActive: 1
--- !u!1 &107398
GameObject:
  m_ObjectHideFlags: 1
  m_PrefabParentObject: {fileID: 0}
  m_PrefabInternal: {fileID: 100100000}
  serializedVersion: 4
  m_Component:
  - 4: {fileID: 407398}
  m_Layer: 0
  m_Name: Bip001 R Finger2
  m_TagString: Untagged
  m_Icon: {fileID: 0}
  m_NavMeshLayer: 0
  m_StaticEditorFlags: 0
  m_IsActive: 1
--- !u!1 &107400
GameObject:
  m_ObjectHideFlags: 0
  m_PrefabParentObject: {fileID: 0}
  m_PrefabInternal: {fileID: 100100000}
  serializedVersion: 4
  m_Component:
  - 4: {fileID: 407400}
  - 137: {fileID: 13707428}
  m_Layer: 0
  m_Name: Ice Golem
  m_TagString: Untagged
  m_Icon: {fileID: 0}
  m_NavMeshLayer: 0
  m_StaticEditorFlags: 0
  m_IsActive: 1
--- !u!1 &107402
GameObject:
  m_ObjectHideFlags: 1
  m_PrefabParentObject: {fileID: 0}
  m_PrefabInternal: {fileID: 100100000}
  serializedVersion: 4
  m_Component:
  - 4: {fileID: 407402}
  m_Layer: 0
  m_Name: Bip001 R Thigh
  m_TagString: Untagged
  m_Icon: {fileID: 0}
  m_NavMeshLayer: 0
  m_StaticEditorFlags: 0
  m_IsActive: 1
--- !u!1 &107404
GameObject:
  m_ObjectHideFlags: 1
  m_PrefabParentObject: {fileID: 0}
  m_PrefabInternal: {fileID: 100100000}
  serializedVersion: 4
  m_Component:
  - 4: {fileID: 407404}
  m_Layer: 0
  m_Name: Bip001 Spine
  m_TagString: Untagged
  m_Icon: {fileID: 0}
  m_NavMeshLayer: 0
  m_StaticEditorFlags: 0
  m_IsActive: 1
--- !u!1 &107406
GameObject:
  m_ObjectHideFlags: 1
  m_PrefabParentObject: {fileID: 0}
  m_PrefabInternal: {fileID: 100100000}
  serializedVersion: 4
  m_Component:
  - 4: {fileID: 407406}
  m_Layer: 0
  m_Name: Bip001 R Finger0
  m_TagString: Untagged
  m_Icon: {fileID: 0}
  m_NavMeshLayer: 0
  m_StaticEditorFlags: 0
  m_IsActive: 1
--- !u!1 &107408
GameObject:
  m_ObjectHideFlags: 1
  m_PrefabParentObject: {fileID: 0}
  m_PrefabInternal: {fileID: 100100000}
  serializedVersion: 4
  m_Component:
  - 4: {fileID: 407408}
  m_Layer: 0
  m_Name: Bip001 Footsteps
  m_TagString: Untagged
  m_Icon: {fileID: 0}
  m_NavMeshLayer: 0
  m_StaticEditorFlags: 0
  m_IsActive: 1
--- !u!1 &107410
GameObject:
  m_ObjectHideFlags: 1
  m_PrefabParentObject: {fileID: 0}
  m_PrefabInternal: {fileID: 100100000}
  serializedVersion: 4
  m_Component:
  - 4: {fileID: 407410}
  m_Layer: 0
  m_Name: Bip001 L Finger31
  m_TagString: Untagged
  m_Icon: {fileID: 0}
  m_NavMeshLayer: 0
  m_StaticEditorFlags: 0
  m_IsActive: 1
--- !u!1 &107412
GameObject:
  m_ObjectHideFlags: 1
  m_PrefabParentObject: {fileID: 0}
  m_PrefabInternal: {fileID: 100100000}
  serializedVersion: 4
  m_Component:
  - 4: {fileID: 407412}
  m_Layer: 0
  m_Name: Bip001 R Clavicle
  m_TagString: Untagged
  m_Icon: {fileID: 0}
  m_NavMeshLayer: 0
  m_StaticEditorFlags: 0
  m_IsActive: 1
--- !u!1 &107414
GameObject:
  m_ObjectHideFlags: 1
  m_PrefabParentObject: {fileID: 0}
  m_PrefabInternal: {fileID: 100100000}
  serializedVersion: 4
  m_Component:
  - 4: {fileID: 407414}
  m_Layer: 0
  m_Name: Bip001 Ponytail1Nub
  m_TagString: Untagged
  m_Icon: {fileID: 0}
  m_NavMeshLayer: 0
  m_StaticEditorFlags: 0
  m_IsActive: 1
--- !u!1 &107416
GameObject:
  m_ObjectHideFlags: 1
  m_PrefabParentObject: {fileID: 0}
  m_PrefabInternal: {fileID: 100100000}
  serializedVersion: 4
  m_Component:
  - 4: {fileID: 407416}
  m_Layer: 0
  m_Name: Bip001 R Toe0
  m_TagString: Untagged
  m_Icon: {fileID: 0}
  m_NavMeshLayer: 0
  m_StaticEditorFlags: 0
  m_IsActive: 1
--- !u!1 &107418
GameObject:
  m_ObjectHideFlags: 1
  m_PrefabParentObject: {fileID: 0}
  m_PrefabInternal: {fileID: 100100000}
  serializedVersion: 4
  m_Component:
  - 4: {fileID: 407418}
  m_Layer: 0
  m_Name: Bip001 R Finger1Nub
  m_TagString: Untagged
  m_Icon: {fileID: 0}
  m_NavMeshLayer: 0
  m_StaticEditorFlags: 0
  m_IsActive: 1
--- !u!1 &107420
GameObject:
  m_ObjectHideFlags: 1
  m_PrefabParentObject: {fileID: 0}
  m_PrefabInternal: {fileID: 100100000}
  serializedVersion: 4
  m_Component:
  - 4: {fileID: 407420}
  m_Layer: 0
  m_Name: Bip001 Pelvis
  m_TagString: Untagged
  m_Icon: {fileID: 0}
  m_NavMeshLayer: 0
  m_StaticEditorFlags: 0
  m_IsActive: 1
--- !u!1 &107422
GameObject:
  m_ObjectHideFlags: 1
  m_PrefabParentObject: {fileID: 0}
  m_PrefabInternal: {fileID: 100100000}
  serializedVersion: 4
  m_Component:
  - 4: {fileID: 407422}
  m_Layer: 0
  m_Name: Bip001 R Finger31
  m_TagString: Untagged
  m_Icon: {fileID: 0}
  m_NavMeshLayer: 0
  m_StaticEditorFlags: 0
  m_IsActive: 1
--- !u!1 &107424
GameObject:
  m_ObjectHideFlags: 1
  m_PrefabParentObject: {fileID: 0}
  m_PrefabInternal: {fileID: 100100000}
  serializedVersion: 4
  m_Component:
  - 4: {fileID: 407424}
  m_Layer: 0
  m_Name: Bip001 R Toe0Nub
  m_TagString: Untagged
  m_Icon: {fileID: 0}
  m_NavMeshLayer: 0
  m_StaticEditorFlags: 0
  m_IsActive: 1
--- !u!1 &107426
GameObject:
  m_ObjectHideFlags: 1
  m_PrefabParentObject: {fileID: 0}
  m_PrefabInternal: {fileID: 100100000}
  serializedVersion: 4
  m_Component:
  - 4: {fileID: 407426}
  m_Layer: 0
  m_Name: Bip001 Spine2
  m_TagString: Untagged
  m_Icon: {fileID: 0}
  m_NavMeshLayer: 0
  m_StaticEditorFlags: 0
  m_IsActive: 1
--- !u!1 &107428
GameObject:
  m_ObjectHideFlags: 1
  m_PrefabParentObject: {fileID: 0}
  m_PrefabInternal: {fileID: 100100000}
  serializedVersion: 4
  m_Component:
  - 4: {fileID: 407428}
  m_Layer: 0
  m_Name: Bip001 L Clavicle
  m_TagString: Untagged
  m_Icon: {fileID: 0}
  m_NavMeshLayer: 0
  m_StaticEditorFlags: 0
  m_IsActive: 1
--- !u!4 &407306
Transform:
  m_ObjectHideFlags: 1
  m_PrefabParentObject: {fileID: 0}
  m_PrefabInternal: {fileID: 100100000}
  m_GameObject: {fileID: 107306}
  m_LocalRotation: {x: -.145183295, y: -.198151022, z: .0101935752, w: .969305992}
  m_LocalPosition: {x: -.0669988245, y: .0035834692, z: -.0260530841}
  m_LocalScale: {x: 1.00000024, y: 1.00000024, z: 1.00000024}
  m_Children:
  - {fileID: 407314}
  m_Father: {fileID: 407360}
  m_RootOrder: 1
--- !u!4 &407308
Transform:
  m_ObjectHideFlags: 1
  m_PrefabParentObject: {fileID: 0}
  m_PrefabInternal: {fileID: 100100000}
  m_GameObject: {fileID: 107308}
  m_LocalRotation: {x: 0, y: 0, z: 0, w: 1}
  m_LocalPosition: {x: -35.3731155, y: 2.51091833e-18, z: -5.65408564}
  m_LocalScale: {x: 2, y: 2, z: 2}
  m_Children:
  - {fileID: 407332}
  - {fileID: 407400}
  m_Father: {fileID: 0}
  m_RootOrder: 0
--- !u!4 &407310
Transform:
  m_ObjectHideFlags: 1
  m_PrefabParentObject: {fileID: 0}
  m_PrefabInternal: {fileID: 100100000}
  m_GameObject: {fileID: 107310}
  m_LocalRotation: {x: 1.1154665e-09, y: 4.75896655e-09, z: 5.10913708e-07, w: 1}
  m_LocalPosition: {x: -.0691129267, y: .012293119, z: 1.66893006e-08}
  m_LocalScale: {x: 1.00000012, y: 1.00000012, z: 1.00000012}
  m_Children:
  - {fileID: 407312}
  - {fileID: 407428}
  - {fileID: 407412}
  m_Father: {fileID: 407356}
  m_RootOrder: 0
--- !u!4 &407312
Transform:
  m_ObjectHideFlags: 1
  m_PrefabParentObject: {fileID: 0}
  m_PrefabInternal: {fileID: 100100000}
  m_GameObject: {fileID: 107312}
  m_LocalRotation: {x: -.021778034, y: -.0297217779, z: .13266699, w: .990475595}
  m_LocalPosition: {x: -.0412485488, y: 9.53674295e-09, z: -2.38418574e-09}
  m_LocalScale: {x: 1.00000012, y: 1.00000012, z: 1.00000012}
  m_Children:
  - {fileID: 407392}
  - {fileID: 407388}
  m_Father: {fileID: 407310}
  m_RootOrder: 0
--- !u!4 &407314
Transform:
  m_ObjectHideFlags: 1
  m_PrefabParentObject: {fileID: 0}
  m_PrefabInternal: {fileID: 100100000}
  m_GameObject: {fileID: 107314}
  m_LocalRotation: {x: 1.81242505e-08, y: -4.29623981e-09, z: -.768345118, w: .640035748}
  m_LocalPosition: {x: -.0406209603, y: -1.96110683e-08, z: 3.80830123e-08}
  m_LocalScale: {x: .999999881, y: .999999821, z: 1}
  m_Children:
  - {fileID: 407390}
  m_Father: {fileID: 407306}
  m_RootOrder: 0
--- !u!4 &407316
Transform:
  m_ObjectHideFlags: 1
  m_PrefabParentObject: {fileID: 0}
  m_PrefabInternal: {fileID: 100100000}
  m_GameObject: {fileID: 107316}
  m_LocalRotation: {x: .224409327, y: -.247885764, z: -.496900409, w: .800801516}
  m_LocalPosition: {x: -.0389518365, y: .0178424828, z: -.0542901084}
  m_LocalScale: {x: 1.00000012, y: 1.00000012, z: 1.00000012}
  m_Children:
  - {fileID: 407374}
  m_Father: {fileID: 407320}
  m_RootOrder: 4
--- !u!4 &407318
Transform:
  m_ObjectHideFlags: 1
  m_PrefabParentObject: {fileID: 0}
  m_PrefabInternal: {fileID: 100100000}
  m_GameObject: {fileID: 107318}
  m_LocalRotation: {x: -5.8207654e-11, y: -1.39698386e-09, z: 1, w: 6.11510275e-17}
  m_LocalPosition: {x: -.0474193171, y: -2.38418574e-09, z: -9.53674295e-09}
  m_LocalScale: {x: -1.00000012, y: -1, z: -1.00000012}
  m_Children: []
  m_Father: {fileID: 407366}
  m_RootOrder: 0
--- !u!4 &407320
Transform:
  m_ObjectHideFlags: 1
  m_PrefabParentObject: {fileID: 0}
  m_PrefabInternal: {fileID: 100100000}
  m_GameObject: {fileID: 107320}
  m_LocalRotation: {x: .607478321, y: .192455873, z: .075338833, w: .766977847}
  m_LocalPosition: {x: -.155570611, y: 4.84212954e-08, z: 3.95690734e-08}
  m_LocalScale: {x: 1, y: 1, z: .999999881}
  m_Children:
  - {fileID: 407406}
  - {fileID: 407384}
  - {fileID: 407398}
  - {fileID: 407328}
  - {fileID: 407316}
  m_Father: {fileID: 407348}
  m_RootOrder: 0
--- !u!4 &407322
Transform:
  m_ObjectHideFlags: 1
  m_PrefabParentObject: {fileID: 0}
  m_PrefabInternal: {fileID: 100100000}
  m_GameObject: {fileID: 107322}
  m_LocalRotation: {x: -4.6360622e-09, y: -9.49936685e-10, z: .158280358, w: .987394273}
  m_LocalPosition: {x: -.228014678, y: 1.90734859e-08, z: -9.53674295e-09}
  m_LocalScale: {x: 1, y: 1.00000012, z: .99999994}
  m_Children:
  - {fileID: 407378}
  m_Father: {fileID: 407354}
  m_RootOrder: 0
--- !u!4 &407324
Transform:
  m_ObjectHideFlags: 1
  m_PrefabParentObject: {fileID: 0}
  m_PrefabInternal: {fileID: 100100000}
  m_GameObject: {fileID: 107324}
  m_LocalRotation: {x: -7.4505806e-09, y: 4.56216504e-25, z: 1, w: 6.12323426e-17}
  m_LocalPosition: {x: -.0511106476, y: 3.81469718e-08, z: -4.76837148e-09}
  m_LocalScale: {x: -1, y: -1, z: -1}
  m_Children: []
  m_Father: {fileID: 407422}
  m_RootOrder: 0
--- !u!4 &407326
Transform:
  m_ObjectHideFlags: 1
  m_PrefabParentObject: {fileID: 0}
  m_PrefabInternal: {fileID: 100100000}
  m_GameObject: {fileID: 107326}
  m_LocalRotation: {x: 1.49011612e-08, y: 1.86264493e-09, z: 1, w: 1.49011612e-08}
  m_LocalPosition: {x: -.0596290939, y: 0, z: 2.38418574e-09}
  m_LocalScale: {x: -1, y: -1, z: -1}
  m_Children: []
  m_Father: {fileID: 407362}
  m_RootOrder: 0
--- !u!4 &407328
Transform:
  m_ObjectHideFlags: 1
  m_PrefabParentObject: {fileID: 0}
  m_PrefabInternal: {fileID: 100100000}
  m_GameObject: {fileID: 107328}
  m_LocalRotation: {x: .250928611, y: -.128873184, z: -.525435269, w: .802710593}
  m_LocalPosition: {x: -.0665520057, y: .00860086456, z: -.0354295485}
  m_LocalScale: {x: 1.00000012, y: 1.00000024, z: 1.00000012}
  m_Children:
  - {fileID: 407422}
  m_Father: {fileID: 407320}
  m_RootOrder: 3
--- !u!4 &407330
Transform:
  m_ObjectHideFlags: 1
  m_PrefabParentObject: {fileID: 0}
  m_PrefabInternal: {fileID: 100100000}
  m_GameObject: {fileID: 107330}
  m_LocalRotation: {x: -.00529727293, y: .00228524185, z: -.0236855783, w: .999702871}
  m_LocalPosition: {x: -.0778860822, y: -6.19609418e-05, z: 5.6198769e-07}
  m_LocalScale: {x: 1, y: 1, z: 1}
  m_Children:
  - {fileID: 407426}
  m_Father: {fileID: 407404}
  m_RootOrder: 2
--- !u!4 &407332
Transform:
  m_ObjectHideFlags: 1
  m_PrefabParentObject: {fileID: 0}
  m_PrefabInternal: {fileID: 100100000}
  m_GameObject: {fileID: 107332}
  m_LocalRotation: {x: -.485404581, y: .453266442, z: .514165401, w: .542739332}
  m_LocalPosition: {x: 0, y: .505442142, z: -6.90841625e-05}
  m_LocalScale: {x: .99999994, y: .99999994, z: 1}
  m_Children:
  - {fileID: 407408}
  - {fileID: 407420}
  m_Father: {fileID: 407308}
  m_RootOrder: 0
--- !u!4 &407334
Transform:
  m_ObjectHideFlags: 1
  m_PrefabParentObject: {fileID: 0}
  m_PrefabInternal: {fileID: 100100000}
  m_GameObject: {fileID: 107334}
  m_LocalRotation: {x: 1.49011612e-08, y: -7.4505806e-09, z: 3.7252903e-09, w: 1}
  m_LocalPosition: {x: -.0457578637, y: 0, z: -3.81469718e-08}
  m_LocalScale: {x: 1, y: 1, z: 1}
  m_Children: []
  m_Father: {fileID: 407382}
  m_RootOrder: 0
--- !u!4 &407336
Transform:
  m_ObjectHideFlags: 1
  m_PrefabParentObject: {fileID: 0}
  m_PrefabInternal: {fileID: 100100000}
  m_GameObject: {fileID: 107336}
  m_LocalRotation: {x: 2.38470268e-16, y: 1.23400241e-08, z: -1.93249434e-08, w: 1}
  m_LocalPosition: {x: -.0425922051, y: 0, z: -1.90734859e-08}
  m_LocalScale: {x: 1, y: 1.00000012, z: 1}
  m_Children: []
  m_Father: {fileID: 407338}
  m_RootOrder: 0
--- !u!4 &407338
Transform:
  m_ObjectHideFlags: 1
  m_PrefabParentObject: {fileID: 0}
  m_PrefabInternal: {fileID: 100100000}
  m_GameObject: {fileID: 107338}
  m_LocalRotation: {x: 1.35399558e-08, y: 7.2520252e-09, z: -.740691125, w: .671845734}
  m_LocalPosition: {x: -.0277516935, y: -1.90734859e-08, z: 9.53674295e-09}
  m_LocalScale: {x: 1.00000024, y: 1, z: 1}
  m_Children:
  - {fileID: 407336}
  m_Father: {fileID: 407340}
  m_RootOrder: 0
--- !u!4 &407340
Transform:
  m_ObjectHideFlags: 1
  m_PrefabParentObject: {fileID: 0}
  m_PrefabInternal: {fileID: 100100000}
  m_GameObject: {fileID: 107340}
  m_LocalRotation: {x: -.224409342, y: .247885764, z: -.496900409, w: .800801516}
  m_LocalPosition: {x: -.0389518738, y: .0178425014, z: .0542901494}
  m_LocalScale: {x: 1.00000024, y: 1.00000024, z: 1.00000024}
  m_Children:
  - {fileID: 407338}
  m_Father: {fileID: 407360}
  m_RootOrder: 4
--- !u!4 &407342
Transform:
  m_ObjectHideFlags: 1
  m_PrefabParentObject: {fileID: 0}
  m_PrefabInternal: {fileID: 100100000}
  m_GameObject: {fileID: 107342}
  m_LocalRotation: {x: -.25092864, y: .128873199, z: -.525435269, w: .802710652}
  m_LocalPosition: {x: -.066552043, y: .00860088319, z: .0354295336}
  m_LocalScale: {x: 1.00000024, y: 1.00000024, z: 1}
  m_Children:
  - {fileID: 407410}
  m_Father: {fileID: 407360}
  m_RootOrder: 3
--- !u!4 &407344
Transform:
  m_ObjectHideFlags: 1
  m_PrefabParentObject: {fileID: 0}
  m_PrefabInternal: {fileID: 100100000}
  m_GameObject: {fileID: 107344}
  m_LocalRotation: {x: 7.4505806e-09, y: -7.4505806e-09, z: -1.49011612e-08, w: 1}
  m_LocalPosition: {x: -.0511106476, y: 0, z: 9.53674295e-09}
  m_LocalScale: {x: 1, y: 1, z: 1.00000012}
  m_Children: []
  m_Father: {fileID: 407410}
  m_RootOrder: 0
--- !u!4 &407346
Transform:
  m_ObjectHideFlags: 1
  m_PrefabParentObject: {fileID: 0}
  m_PrefabInternal: {fileID: 100100000}
  m_GameObject: {fileID: 107346}
  m_LocalRotation: {x: 2.09864357e-08, y: -1.91186755e-09, z: -.768345118, w: .640035748}
  m_LocalPosition: {x: -.0406209566, y: 1.90734859e-08, z: 0}
  m_LocalScale: {x: 1, y: 1.00000012, z: 1.00000012}
  m_Children:
  - {fileID: 407418}
  m_Father: {fileID: 407384}
  m_RootOrder: 0
--- !u!4 &407348
Transform:
  m_ObjectHideFlags: 1
  m_PrefabParentObject: {fileID: 0}
  m_PrefabInternal: {fileID: 100100000}
  m_GameObject: {fileID: 107348}
  m_LocalRotation: {x: 1.13994876e-08, y: -7.89602428e-09, z: .309305429, w: .950962782}
  m_LocalPosition: {x: -.168739349, y: 9.53674295e-09, z: -3.81469718e-08}
  m_LocalScale: {x: 1, y: .99999994, z: 1}
  m_Children:
  - {fileID: 407320}
  m_Father: {fileID: 407394}
  m_RootOrder: 0
--- !u!4 &407350
Transform:
  m_ObjectHideFlags: 1
  m_PrefabParentObject: {fileID: 0}
  m_PrefabInternal: {fileID: 100100000}
  m_GameObject: {fileID: 107350}
  m_LocalRotation: {x: -1.3830558e-08, y: -1.33460321e-09, z: .135319144, w: .990802109}
  m_LocalPosition: {x: -.16873911, y: -2.66549041e-08, z: -2.8441363e-08}
  m_LocalScale: {x: .999999881, y: .999999881, z: .99999994}
  m_Children:
  - {fileID: 407360}
  m_Father: {fileID: 407380}
  m_RootOrder: 0
--- !u!4 &407352
Transform:
  m_ObjectHideFlags: 1
  m_PrefabParentObject: {fileID: 0}
  m_PrefabInternal: {fileID: 100100000}
  m_GameObject: {fileID: 107352}
  m_LocalRotation: {x: 1.49011594e-08, y: -2.22044578e-16, z: -1.49011612e-08, w: 1}
  m_LocalPosition: {x: -.0596291348, y: 0, z: 0}
  m_LocalScale: {x: 1, y: 1.00000012, z: 1}
  m_Children: []
  m_Father: {fileID: 407370}
  m_RootOrder: 0
--- !u!4 &407354
Transform:
  m_ObjectHideFlags: 1
  m_PrefabParentObject: {fileID: 0}
  m_PrefabInternal: {fileID: 100100000}
  m_GameObject: {fileID: 107354}
  m_LocalRotation: {x: -.0979549661, y: .990906298, z: .0921045989, w: -.00513538485}
  m_LocalPosition: {x: .049281124, y: 3.37049132e-05, z: .0564790666}
  m_LocalScale: {x: 1, y: 1.00000012, z: .99999994}
  m_Children:
  - {fileID: 407322}
  m_Father: {fileID: 407404}
  m_RootOrder: 0
--- !u!4 &407356
Transform:
  m_ObjectHideFlags: 1
  m_PrefabParentObject: {fileID: 0}
  m_PrefabInternal: {fileID: 100100000}
  m_GameObject: {fileID: 107356}
  m_LocalRotation: {x: -.00663028611, y: .011134238, z: -.0104974722, w: .999861002}
  m_LocalPosition: {x: -.0650265589, y: -5.51227167e-05, z: 8.15945327e-07}
  m_LocalScale: {x: .99999994, y: 1, z: 1.00000012}
  m_Children:
  - {fileID: 407310}
  m_Father: {fileID: 407426}
  m_RootOrder: 0
--- !u!4 &407358
Transform:
  m_ObjectHideFlags: 1
  m_PrefabParentObject: {fileID: 0}
  m_PrefabInternal: {fileID: 100100000}
  m_GameObject: {fileID: 107358}
  m_LocalRotation: {x: -5.59656455e-09, y: -1.21958976e-09, z: .672458231, w: .740135074}
  m_LocalPosition: {x: -.228014648, y: 0, z: 0}
  m_LocalScale: {x: 1, y: 1.00000012, z: 1}
  m_Children:
  - {fileID: 407376}
  m_Father: {fileID: 407402}
  m_RootOrder: 0
--- !u!4 &407360
Transform:
  m_ObjectHideFlags: 1
  m_PrefabParentObject: {fileID: 0}
  m_PrefabInternal: {fileID: 100100000}
  m_GameObject: {fileID: 107360}
  m_LocalRotation: {x: -.738253653, y: -.00411994569, z: -.0371226743, w: .673488319}
  m_LocalPosition: {x: -.155570641, y: 1.43194088e-08, z: 2.44136222e-09}
  m_LocalScale: {x: .99999994, y: 1, z: .99999994}
  m_Children:
  - {fileID: 407386}
  - {fileID: 407306}
  - {fileID: 407364}
  - {fileID: 407342}
  - {fileID: 407340}
  m_Father: {fileID: 407350}
  m_RootOrder: 0
--- !u!4 &407362
Transform:
  m_ObjectHideFlags: 1
  m_PrefabParentObject: {fileID: 0}
  m_PrefabInternal: {fileID: 100100000}
  m_GameObject: {fileID: 107362}
  m_LocalRotation: {x: 7.94251687e-09, y: 7.86240584e-09, z: -.710680544, w: .703514874}
  m_LocalPosition: {x: -.0390074514, y: 0, z: 1.90734859e-08}
  m_LocalScale: {x: 1, y: .999999881, z: .99999994}
  m_Children:
  - {fileID: 407326}
  m_Father: {fileID: 407398}
  m_RootOrder: 0
--- !u!4 &407364
Transform:
  m_ObjectHideFlags: 1
  m_PrefabParentObject: {fileID: 0}
  m_PrefabInternal: {fileID: 100100000}
  m_GameObject: {fileID: 107364}
  m_LocalRotation: {x: -.112026319, y: .0525857881, z: -.17757161, w: .97629565}
  m_LocalPosition: {x: -.0631196573, y: -.00449729897, z: .00528163882}
  m_LocalScale: {x: 1.00000024, y: 1.00000012, z: 1.00000012}
  m_Children:
  - {fileID: 407370}
  m_Father: {fileID: 407360}
  m_RootOrder: 2
--- !u!4 &407366
Transform:
  m_ObjectHideFlags: 1
  m_PrefabParentObject: {fileID: 0}
  m_PrefabInternal: {fileID: 100100000}
  m_GameObject: {fileID: 107366}
  m_LocalRotation: {x: -1.92437462e-08, y: 1.19648034e-08, z: -.660442352, w: .750876844}
  m_LocalPosition: {x: -.052443359, y: .0974702463, z: 0}
  m_LocalScale: {x: 1, y: 1, z: 1}
  m_Children:
  - {fileID: 407318}
  m_Father: {fileID: 407378}
  m_RootOrder: 0
--- !u!4 &407368
Transform:
  m_ObjectHideFlags: 1
  m_PrefabParentObject: {fileID: 0}
  m_PrefabInternal: {fileID: 100100000}
  m_GameObject: {fileID: 107368}
  m_LocalRotation: {x: 1.48353703e-08, y: -3.97905531e-09, z: -.485578299, w: .874193192}
  m_LocalPosition: {x: -.0457578599, y: 3.81469718e-08, z: -3.81469718e-08}
  m_LocalScale: {x: 1, y: 1, z: 1}
  m_Children:
  - {fileID: 407396}
  m_Father: {fileID: 407406}
  m_RootOrder: 0
--- !u!4 &407370
Transform:
  m_ObjectHideFlags: 1
  m_PrefabParentObject: {fileID: 0}
  m_PrefabInternal: {fileID: 100100000}
  m_GameObject: {fileID: 107370}
  m_LocalRotation: {x: 7.94247335e-09, y: 7.86239074e-09, z: -.710680544, w: .703514874}
  m_LocalPosition: {x: -.0390074514, y: -9.53674295e-09, z: 0}
  m_LocalScale: {x: 1.00000012, y: 1, z: 1.00000012}
  m_Children:
  - {fileID: 407352}
  m_Father: {fileID: 407364}
  m_RootOrder: 0
--- !u!4 &407372
Transform:
  m_ObjectHideFlags: 1
  m_PrefabParentObject: {fileID: 0}
  m_PrefabInternal: {fileID: 100100000}
  m_GameObject: {fileID: 107372}
  m_LocalRotation: {x: 1.11758718e-08, y: -1.4901163e-08, z: 1, w: 2.27765836e-16}
  m_LocalPosition: {x: -.0425922088, y: -3.81469718e-08, z: 1.90734859e-08}
  m_LocalScale: {x: -.99999994, y: -.999999881, z: -.999999881}
  m_Children: []
  m_Father: {fileID: 407374}
  m_RootOrder: 0
--- !u!4 &407374
Transform:
  m_ObjectHideFlags: 1
  m_PrefabParentObject: {fileID: 0}
  m_PrefabInternal: {fileID: 100100000}
  m_GameObject: {fileID: 107374}
  m_LocalRotation: {x: 1.02581754e-09, y: 2.10483844e-08, z: -.740691066, w: .671845794}
  m_LocalPosition: {x: -.0277517587, y: -1.83907396e-08, z: -4.46992399e-09}
  m_LocalScale: {x: 1.00000012, y: 1.00000012, z: 1.00000012}
  m_Children:
  - {fileID: 407372}
  m_Father: {fileID: 407316}
  m_RootOrder: 0
--- !u!4 &407376
Transform:
  m_ObjectHideFlags: 1
  m_PrefabParentObject: {fileID: 0}
  m_PrefabInternal: {fileID: 100100000}
  m_GameObject: {fileID: 107376}
  m_LocalRotation: {x: .0477606058, y: -.00769976014, z: -.0246831197, w: .998524129}
  m_LocalPosition: {x: -.228014693, y: 4.76837148e-09, z: 0}
  m_LocalScale: {x: 1.00000012, y: 1.00000012, z: 1.00000012}
  m_Children:
  - {fileID: 407416}
  m_Father: {fileID: 407358}
  m_RootOrder: 0
--- !u!4 &407378
Transform:
  m_ObjectHideFlags: 1
  m_PrefabParentObject: {fileID: 0}
  m_PrefabInternal: {fileID: 100100000}
  m_GameObject: {fileID: 107378}
  m_LocalRotation: {x: .0410628393, y: -.00199885247, z: -.141532511, w: .989079595}
  m_LocalPosition: {x: -.228014499, y: -4.15922798e-08, z: -3.53957397e-09}
  m_LocalScale: {x: 1, y: 1, z: 1}
  m_Children:
  - {fileID: 407366}
  m_Father: {fileID: 407322}
  m_RootOrder: 0
--- !u!4 &407380
Transform:
  m_ObjectHideFlags: 1
  m_PrefabParentObject: {fileID: 0}
  m_PrefabInternal: {fileID: 100100000}
  m_GameObject: {fileID: 107380}
  m_LocalRotation: {x: .0105159143, y: -.469285697, z: .0312713943, w: .882429898}
  m_LocalPosition: {x: -.098712258, y: 2.76428977e-08, z: 8.33465421e-08}
  m_LocalScale: {x: 1.00000012, y: 1.00000024, z: 1.00000012}
  m_Children:
  - {fileID: 407350}
  m_Father: {fileID: 407428}
  m_RootOrder: 0
--- !u!4 &407382
Transform:
  m_ObjectHideFlags: 1
  m_PrefabParentObject: {fileID: 0}
  m_PrefabInternal: {fileID: 100100000}
  m_GameObject: {fileID: 107382}
  m_LocalRotation: {x: -5.4265743e-09, y: -9.76993864e-09, z: -.485578269, w: .874193192}
  m_LocalPosition: {x: -.0457578488, y: 1.5797049e-08, z: 3.86480039e-08}
  m_LocalScale: {x: 1, y: .99999994, z: 1.00000012}
  m_Children:
  - {fileID: 407334}
  m_Father: {fileID: 407386}
  m_RootOrder: 0
--- !u!4 &407384
Transform:
  m_ObjectHideFlags: 1
  m_PrefabParentObject: {fileID: 0}
  m_PrefabInternal: {fileID: 100100000}
  m_GameObject: {fileID: 107384}
  m_LocalRotation: {x: .14518325, y: .198151052, z: .0101936124, w: .969305992}
  m_LocalPosition: {x: -.0669988245, y: .0035834692, z: .0260530841}
  m_LocalScale: {x: 1, y: 1, z: 1}
  m_Children:
  - {fileID: 407346}
  m_Father: {fileID: 407320}
  m_RootOrder: 1
--- !u!4 &407386
Transform:
  m_ObjectHideFlags: 1
  m_PrefabParentObject: {fileID: 0}
  m_PrefabInternal: {fileID: 100100000}
  m_GameObject: {fileID: 107386}
  m_LocalRotation: {x: .222065136, y: -.691636324, z: -.25932762, w: .636455417}
  m_LocalPosition: {x: .000521354668, y: .000306053145, z: -.0339098163}
  m_LocalScale: {x: 1, y: 1.00000012, z: 1.00000012}
  m_Children:
  - {fileID: 407382}
  m_Father: {fileID: 407360}
  m_RootOrder: 0
--- !u!4 &407388
Transform:
  m_ObjectHideFlags: 1
  m_PrefabParentObject: {fileID: 0}
  m_PrefabInternal: {fileID: 100100000}
  m_GameObject: {fileID: 107388}
  m_LocalRotation: {x: 1.7448808e-09, y: -2.71640215e-06, z: .982234716, w: -.187656432}
  m_LocalPosition: {x: -.00747909537, y: .0243237484, z: -1.43051144e-08}
  m_LocalScale: {x: 1, y: 1, z: 1}
  m_Children:
  - {fileID: 407414}
  m_Father: {fileID: 407312}
  m_RootOrder: 1
--- !u!4 &407390
Transform:
  m_ObjectHideFlags: 1
  m_PrefabParentObject: {fileID: 0}
  m_PrefabInternal: {fileID: 100100000}
  m_GameObject: {fileID: 107390}
  m_LocalRotation: {x: 0, y: -1.49011612e-08, z: -0, w: 1}
  m_LocalPosition: {x: -.0511106476, y: 9.53674295e-09, z: 0}
  m_LocalScale: {x: 1, y: 1.00000012, z: 1}
  m_Children: []
  m_Father: {fileID: 407314}
  m_RootOrder: 0
--- !u!4 &407392
Transform:
  m_ObjectHideFlags: 1
  m_PrefabParentObject: {fileID: 0}
  m_PrefabInternal: {fileID: 100100000}
  m_GameObject: {fileID: 107392}
  m_LocalRotation: {x: 6.21724809e-15, y: 0, z: -0, w: 1}
  m_LocalPosition: {x: -.0806403309, y: 0, z: -2.98023217e-10}
  m_LocalScale: {x: 1.00000012, y: 1.00000012, z: 1}
  m_Children: []
  m_Father: {fileID: 407312}
  m_RootOrder: 0
--- !u!4 &407394
Transform:
  m_ObjectHideFlags: 1
  m_PrefabParentObject: {fileID: 0}
  m_PrefabInternal: {fileID: 100100000}
  m_GameObject: {fileID: 107394}
  m_LocalRotation: {x: -.0250752624, y: .500385702, z: -.00455804262, w: .865427434}
  m_LocalPosition: {x: -.0987123102, y: -1.9318616e-08, z: 1.51655115e-07}
  m_LocalScale: {x: 1.00000012, y: 1.00000012, z: 1}
  m_Children:
  - {fileID: 407348}
  m_Father: {fileID: 407412}
  m_RootOrder: 0
--- !u!4 &407396
Transform:
  m_ObjectHideFlags: 1
  m_PrefabParentObject: {fileID: 0}
  m_PrefabInternal: {fileID: 100100000}
  m_GameObject: {fileID: 107396}
  m_LocalRotation: {x: -3.72529074e-09, y: -1.49011612e-08, z: 1, w: 1.30385169e-08}
  m_LocalPosition: {x: -.0457578637, y: 9.53674295e-09, z: -3.81469718e-08}
  m_LocalScale: {x: -.99999994, y: -1, z: -1}
  m_Children: []
  m_Father: {fileID: 407368}
  m_RootOrder: 0
--- !u!4 &407398
Transform:
  m_ObjectHideFlags: 1
  m_PrefabParentObject: {fileID: 0}
  m_PrefabInternal: {fileID: 100100000}
  m_GameObject: {fileID: 107398}
  m_LocalRotation: {x: .112026304, y: -.0525858067, z: -.17757161, w: .97629565}
  m_LocalPosition: {x: -.0631196573, y: -.00449735625, z: -.00528163882}
  m_LocalScale: {x: 1.00000012, y: 1.00000012, z: 1}
  m_Children:
  - {fileID: 407362}
  m_Father: {fileID: 407320}
  m_RootOrder: 2
--- !u!4 &407400
Transform:
  m_ObjectHideFlags: 1
  m_PrefabParentObject: {fileID: 0}
  m_PrefabInternal: {fileID: 100100000}
  m_GameObject: {fileID: 107400}
  m_LocalRotation: {x: 2.18556941e-08, y: 0, z: 0, w: 1}
  m_LocalPosition: {x: -.00161293743, y: .924102366, z: 4.03937968e-08}
  m_LocalScale: {x: 1, y: 1, z: 1}
  m_Children: []
  m_Father: {fileID: 407308}
  m_RootOrder: 1
--- !u!4 &407402
Transform:
  m_ObjectHideFlags: 1
  m_PrefabParentObject: {fileID: 0}
  m_PrefabInternal: {fileID: 100100000}
  m_GameObject: {fileID: 107402}
  m_LocalRotation: {x: -.401369035, y: .914574564, z: -.0328513458, w: -.0371095501}
  m_LocalPosition: {x: .0555129535, y: .00356624322, z: -.0591856502}
  m_LocalScale: {x: 1, y: 1.00000012, z: 1}
  m_Children:
  - {fileID: 407358}
  m_Father: {fileID: 407404}
  m_RootOrder: 1
--- !u!4 &407404
Transform:
  m_ObjectHideFlags: 1
  m_PrefabParentObject: {fileID: 0}
  m_PrefabInternal: {fileID: 100100000}
  m_GameObject: {fileID: 107404}
  m_LocalRotation: {x: -.0124044083, y: .0265922379, z: -.0158883054, w: .999443114}
  m_LocalPosition: {x: -.052275002, y: -6.19248749e-05, z: .00422326149}
  m_LocalScale: {x: 1.00000012, y: 1.00000012, z: 1}
  m_Children:
  - {fileID: 407354}
  - {fileID: 407402}
  - {fileID: 407330}
  m_Father: {fileID: 407420}
  m_RootOrder: 0
--- !u!4 &407406
Transform:
  m_ObjectHideFlags: 1
  m_PrefabParentObject: {fileID: 0}
  m_PrefabInternal: {fileID: 100100000}
  m_GameObject: {fileID: 107406}
  m_LocalRotation: {x: -.222065091, y: .691636324, z: -.25932759, w: .636455417}
  m_LocalPosition: {x: .000521392794, y: .000306053145, z: .0339098237}
  m_LocalScale: {x: 1, y: 1, z: 1.00000012}
  m_Children:
  - {fileID: 407368}
  m_Father: {fileID: 407320}
  m_RootOrder: 0
--- !u!4 &407408
Transform:
  m_ObjectHideFlags: 1
  m_PrefabParentObject: {fileID: 0}
  m_PrefabInternal: {fileID: 100100000}
  m_GameObject: {fileID: 107408}
  m_LocalRotation: {x: -.040541824, y: .043062035, z: -.684077621, w: .727007449}
  m_LocalPosition: {x: -.0585920066, y: -.000366918859, z: -.492444783}
  m_LocalScale: {x: 1.00000012, y: 1.00000012, z: 1}
  m_Children: []
  m_Father: {fileID: 407332}
  m_RootOrder: 0
--- !u!4 &407410
Transform:
  m_ObjectHideFlags: 1
  m_PrefabParentObject: {fileID: 0}
  m_PrefabInternal: {fileID: 100100000}
  m_GameObject: {fileID: 107410}
  m_LocalRotation: {x: -2.11399485e-08, y: -1.30639597e-08, z: -.710680544, w: .703514874}
  m_LocalPosition: {x: -.0297354497, y: 3.81469718e-08, z: -9.53674295e-09}
  m_LocalScale: {x: 1, y: 1.00000024, z: 1.00000012}
  m_Children:
  - {fileID: 407344}
  m_Father: {fileID: 407342}
  m_RootOrder: 0
--- !u!4 &407412
Transform:
  m_ObjectHideFlags: 1
  m_PrefabParentObject: {fileID: 0}
  m_PrefabInternal: {fileID: 100100000}
  m_GameObject: {fileID: 107412}
  m_LocalRotation: {x: .59818697, y: -.0410114191, z: .799700558, w: -.0311355889}
  m_LocalPosition: {x: .00624241214, y: -.0132141151, z: -.0243933611}
  m_LocalScale: {x: 1.00000012, y: 1, z: 1.00000012}
  m_Children:
  - {fileID: 407394}
  m_Father: {fileID: 407310}
  m_RootOrder: 2
--- !u!4 &407414
Transform:
  m_ObjectHideFlags: 1
  m_PrefabParentObject: {fileID: 0}
  m_PrefabInternal: {fileID: 100100000}
  m_GameObject: {fileID: 107414}
  m_LocalRotation: {x: .707388282, y: -.706825256, z: -9.80225423e-07, w: -9.81006337e-07}
  m_LocalPosition: {x: -.087059781, y: 3.81469718e-08, z: -2.98023217e-10}
  m_LocalScale: {x: 1.00000012, y: 1.00000012, z: 1}
  m_Children: []
  m_Father: {fileID: 407388}
  m_RootOrder: 0
--- !u!4 &407416
Transform:
  m_ObjectHideFlags: 1
  m_PrefabParentObject: {fileID: 0}
  m_PrefabInternal: {fileID: 100100000}
  m_GameObject: {fileID: 107416}
  m_LocalRotation: {x: -1.29912765e-08, y: 1.80158128e-08, z: -.660442352, w: .750876844}
  m_LocalPosition: {x: -.052443359, y: .0974702463, z: 0}
  m_LocalScale: {x: .99999994, y: .99999994, z: 1.00000012}
  m_Children:
  - {fileID: 407424}
  m_Father: {fileID: 407376}
  m_RootOrder: 0
--- !u!4 &407418
Transform:
  m_ObjectHideFlags: 1
  m_PrefabParentObject: {fileID: 0}
  m_PrefabInternal: {fileID: 100100000}
  m_GameObject: {fileID: 107418}
  m_LocalRotation: {x: 1.82486602e-24, y: 2.98023224e-08, z: 1, w: 6.12323426e-17}
  m_LocalPosition: {x: -.0511106662, y: 0, z: -1.90734859e-08}
  m_LocalScale: {x: -1.00000012, y: -1, z: -1.00000012}
  m_Children: []
  m_Father: {fileID: 407346}
  m_RootOrder: 0
--- !u!4 &407420
Transform:
  m_ObjectHideFlags: 1
  m_PrefabParentObject: {fileID: 0}
  m_PrefabInternal: {fileID: 100100000}
  m_GameObject: {fileID: 107420}
  m_LocalRotation: {x: -.4794707, y: .479471445, z: .519718349, w: .519719005}
  m_LocalPosition: {x: 0, y: 0, z: 0}
  m_LocalScale: {x: 1, y: 1, z: 1.00000012}
  m_Children:
  - {fileID: 407404}
  m_Father: {fileID: 407332}
  m_RootOrder: 1
--- !u!4 &407422
Transform:
  m_ObjectHideFlags: 1
  m_PrefabParentObject: {fileID: 0}
  m_PrefabInternal: {fileID: 100100000}
  m_GameObject: {fileID: 107422}
  m_LocalRotation: {x: 1.58849769e-08, y: 1.5724865e-08, z: -.710680544, w: .703514874}
  m_LocalPosition: {x: -.0297353659, y: 4.41225012e-09, z: 1.28013236e-08}
  m_LocalScale: {x: .99999994, y: .99999994, z: 1}
  m_Children:
  - {fileID: 407324}
  m_Father: {fileID: 407328}
  m_RootOrder: 0
--- !u!4 &407424
Transform:
  m_ObjectHideFlags: 1
  m_PrefabParentObject: {fileID: 0}
  m_PrefabInternal: {fileID: 100100000}
  m_GameObject: {fileID: 107424}
  m_LocalRotation: {x: 6.98491875e-10, y: 2.32830621e-09, z: -1.62630285e-18, w: 1}
  m_LocalPosition: {x: -.047419291, y: 0, z: 0}
  m_LocalScale: {x: 1.00000012, y: 1.00000012, z: 1}
  m_Children: []
  m_Father: {fileID: 407416}
  m_RootOrder: 0
--- !u!4 &407426
Transform:
  m_ObjectHideFlags: 1
  m_PrefabParentObject: {fileID: 0}
  m_PrefabInternal: {fileID: 100100000}
  m_GameObject: {fileID: 107426}
  m_LocalRotation: {x: -.00621404452, y: .00625606673, z: -.0160019547, w: .999833107}
  m_LocalPosition: {x: -.0778847188, y: -5.17374028e-05, z: 7.2387445e-07}
  m_LocalScale: {x: 1.00000012, y: 1.00000012, z: 1.00000012}
  m_Children:
  - {fileID: 407356}
  m_Father: {fileID: 407330}
  m_RootOrder: 0
--- !u!4 &407428
Transform:
  m_ObjectHideFlags: 1
  m_PrefabParentObject: {fileID: 0}
  m_PrefabInternal: {fileID: 100100000}
  m_GameObject: {fileID: 107428}
  m_LocalRotation: {x: -.605124533, y: .0770340785, z: .790156066, w: -.0595266111}
  m_LocalPosition: {x: .00624236837, y: -.0132142166, z: .0243933145}
  m_LocalScale: {x: 1.00000012, y: 1, z: 1}
  m_Children:
  - {fileID: 407380}
  m_Father: {fileID: 407310}
  m_RootOrder: 1
--- !u!54 &5407428
Rigidbody:
  m_ObjectHideFlags: 1
  m_PrefabParentObject: {fileID: 0}
  m_PrefabInternal: {fileID: 100100000}
  m_GameObject: {fileID: 107308}
  serializedVersion: 2
  m_Mass: 1
  m_Drag: Infinity
  m_AngularDrag: Infinity
  m_UseGravity: 1
  m_IsKinematic: 0
  m_Interpolate: 0
  m_Constraints: 84
  m_CollisionDetection: 0
--- !u!82 &8207428
AudioSource:
  m_ObjectHideFlags: 1
  m_PrefabParentObject: {fileID: 0}
  m_PrefabInternal: {fileID: 100100000}
  m_GameObject: {fileID: 107308}
  m_Enabled: 1
  serializedVersion: 3
  m_audioClip: {fileID: 8300000, guid: 5b252e580dcaae749a4234869c1805f1, type: 3}
  m_PlayOnAwake: 0
  m_Volume: 1
  m_Pitch: 1
  Loop: 0
  Mute: 0
  Priority: 128
  DopplerLevel: 1
  MinDistance: 1
  MaxDistance: 500
  Pan2D: 0
  rolloffMode: 0
  BypassEffects: 0
  BypassListenerEffects: 0
  BypassReverbZones: 0
  rolloffCustomCurve:
    serializedVersion: 2
    m_Curve:
    - time: 0
      value: 1
      inSlope: 0
      outSlope: 0
      tangentMode: 0
    - time: 1
      value: 0
      inSlope: 0
      outSlope: 0
      tangentMode: 0
    m_PreInfinity: 2
    m_PostInfinity: 2
  panLevelCustomCurve:
    serializedVersion: 2
    m_Curve:
    - time: 0
      value: 1
      inSlope: 0
      outSlope: 0
      tangentMode: 0
    m_PreInfinity: 2
    m_PostInfinity: 2
  spreadCustomCurve:
    serializedVersion: 2
    m_Curve:
    - time: 0
      value: 0
      inSlope: 0
      outSlope: 0
      tangentMode: 0
    m_PreInfinity: 2
    m_PostInfinity: 2
--- !u!111 &11107428
Animation:
  m_ObjectHideFlags: 1
  m_PrefabParentObject: {fileID: 0}
  m_PrefabInternal: {fileID: 100100000}
  m_GameObject: {fileID: 107308}
  m_Enabled: 1
  serializedVersion: 3
  m_Animation: {fileID: 7400010, guid: 8ba535c70bbcf7b46b0cba1188faae47, type: 3}
  m_Animations:
  - {fileID: 7400002, guid: 8ba535c70bbcf7b46b0cba1188faae47, type: 3}
  - {fileID: 7400004, guid: 8ba535c70bbcf7b46b0cba1188faae47, type: 3}
  - {fileID: 7400006, guid: 8ba535c70bbcf7b46b0cba1188faae47, type: 3}
  - {fileID: 7400008, guid: 8ba535c70bbcf7b46b0cba1188faae47, type: 3}
  - {fileID: 7400010, guid: 8ba535c70bbcf7b46b0cba1188faae47, type: 3}
  - {fileID: 7400014, guid: 8ba535c70bbcf7b46b0cba1188faae47, type: 3}
  - {fileID: 7400016, guid: 8ba535c70bbcf7b46b0cba1188faae47, type: 3}
  - {fileID: 7400018, guid: 8ba535c70bbcf7b46b0cba1188faae47, type: 3}
  - {fileID: 7400020, guid: 8ba535c70bbcf7b46b0cba1188faae47, type: 3}
  m_WrapMode: 0
  m_PlayAutomatically: 1
  m_AnimatePhysics: 0
  m_CullingType: 1
--- !u!114 &11407424
MonoBehaviour:
  m_ObjectHideFlags: 1
  m_PrefabParentObject: {fileID: 0}
  m_PrefabInternal: {fileID: 100100000}
  m_GameObject: {fileID: 107308}
  m_Enabled: 1
  m_EditorHideFlags: 0
  m_Script: {fileID: 11500000, guid: e1ce13e9d1f14ec4280ec55352ad49b9, type: 3}
  m_Name: 
  m_EditorClassIdentifier: 
  startingHealth: 100
  currentHealth: 0
  sinkSpeed: 2.5
  scoreValue: 10
  deathClip: {fileID: 8300000, guid: 9c84ccd493165b041b89bce73c78e49e, type: 3}
--- !u!114 &11407426
MonoBehaviour:
  m_ObjectHideFlags: 1
  m_PrefabParentObject: {fileID: 0}
  m_PrefabInternal: {fileID: 100100000}
  m_GameObject: {fileID: 107308}
  m_Enabled: 1
  m_EditorHideFlags: 0
  m_Script: {fileID: 11500000, guid: 64239df8f13a886488140a5b42b7511f, type: 3}
  m_Name: 
  m_EditorClassIdentifier: 
  Path: []
  PathType: 0
  JS: 0
  moveSpeed: 1
  rotateSpeed: 2
  vision: 10
  playerContact: 0
  playerObserved: 0
  start: {x: -35.3731155, y: 2.51091833e-18, z: -5.65408564}
  end: {x: -38.5784912, y: 1.79999995, z: -4.4438796}
--- !u!114 &11407428
MonoBehaviour:
  m_ObjectHideFlags: 1
  m_PrefabParentObject: {fileID: 0}
  m_PrefabInternal: {fileID: 100100000}
  m_GameObject: {fileID: 107308}
  m_Enabled: 1
  m_EditorHideFlags: 0
  m_Script: {fileID: 11500000, guid: d96da1769dde4db488c6a7d8581d5d9d, type: 3}
  m_Name: 
  m_EditorClassIdentifier: 
  timeBetweenAttacks: .5
  attackDamage: 10
  attackClip: {fileID: 8300000, guid: 6026f8428c999d84ba5c7d2ef16280bf, type: 3}
  timer: 3.19233131
--- !u!135 &13507428
SphereCollider:
  m_ObjectHideFlags: 1
  m_PrefabParentObject: {fileID: 0}
  m_PrefabInternal: {fileID: 100100000}
  m_GameObject: {fileID: 107308}
  m_Material: {fileID: 0}
  m_IsTrigger: 1
  m_Enabled: 1
  serializedVersion: 2
  m_Radius: .800000012
  m_Center: {x: 0, y: .800000012, z: 0}
--- !u!136 &13607428
CapsuleCollider:
  m_ObjectHideFlags: 1
  m_PrefabParentObject: {fileID: 0}
  m_PrefabInternal: {fileID: 100100000}
  m_GameObject: {fileID: 107308}
  m_Material: {fileID: 0}
  m_IsTrigger: 0
  m_Enabled: 1
  m_Radius: .25
  m_Height: 1.29999995
  m_Direction: 1
  m_Center: {x: 0, y: .649999976, z: 0}
--- !u!137 &13707428
SkinnedMeshRenderer:
  m_ObjectHideFlags: 1
  m_PrefabParentObject: {fileID: 0}
  m_PrefabInternal: {fileID: 100100000}
  m_GameObject: {fileID: 107400}
  m_Enabled: 1
  m_CastShadows: 1
  m_ReceiveShadows: 1
  m_LightmapIndex: 255
  m_LightmapTilingOffset: {x: 1, y: 1, z: 0, w: 0}
  m_Materials:
  - {fileID: 2100000, guid: da0f6f2de5d93214a8f998dee15aa8c9, type: 2}
  - {fileID: 2100000, guid: a4ed106f9c8e01c4abd2745e756718b9, type: 2}
  m_SubsetIndices: 
  m_StaticBatchRoot: {fileID: 0}
  m_UseLightProbes: 0
  m_LightProbeAnchor: {fileID: 0}
  m_ScaleInLightmap: 1
  m_SortingLayerID: 0
  m_SortingOrder: 0
  serializedVersion: 2
  m_Quality: 0
  m_UpdateWhenOffscreen: 0
  m_Mesh: {fileID: 4300000, guid: 8ba535c70bbcf7b46b0cba1188faae47, type: 3}
  m_Bones:
  - {fileID: 407426}
  - {fileID: 407356}
  - {fileID: 407310}
  - {fileID: 407428}
  - {fileID: 407412}
  - {fileID: 407394}
  - {fileID: 407312}
  - {fileID: 407380}
  - {fileID: 407388}
  - {fileID: 407330}
  - {fileID: 407420}
  - {fileID: 407404}
  - {fileID: 407402}
  - {fileID: 407354}
  - {fileID: 407358}
  - {fileID: 407376}
  - {fileID: 407416}
  - {fileID: 407322}
  - {fileID: 407378}
  - {fileID: 407348}
  - {fileID: 407320}
  - {fileID: 407398}
  - {fileID: 407328}
  - {fileID: 407316}
  - {fileID: 407384}
  - {fileID: 407346}
  - {fileID: 407362}
  - {fileID: 407406}
  - {fileID: 407368}
  - {fileID: 407422}
  - {fileID: 407374}
  - {fileID: 407366}
  - {fileID: 407350}
  - {fileID: 407360}
  - {fileID: 407342}
  - {fileID: 407364}
  - {fileID: 407340}
  - {fileID: 407386}
  - {fileID: 407382}
  - {fileID: 407306}
  - {fileID: 407370}
  - {fileID: 407410}
  - {fileID: 407338}
  - {fileID: 407314}
  m_BlendShapeWeights: []
  m_RootBone: {fileID: 407420}
  m_AABB:
    m_Center: {x: -.0569506586, y: .0263806283, z: -.00200456381}
    m_Extent: {x: .651651859, y: .550115824, z: .570332408}
  m_DirtyAABB: 0
--- !u!1001 &100100000
Prefab:
  m_ObjectHideFlags: 1
  serializedVersion: 2
  m_Modification:
    m_TransformParent: {fileID: 0}
    m_Modifications: []
    m_RemovedComponents: []
  m_ParentPrefab: {fileID: 0}
  m_RootGameObject: {fileID: 107308}
  m_IsPrefabParent: 1
  m_IsExploded: 1
